<svg xmlns="http://www.w3.org/2000/svg" width="100%" height="100%" viewBox="0 0 480 360"
    xmlns:xlink="http://www.w3.org/1999/xlink">
    <!-- Derived from pservers-pattern-01-b.svg from the SVG unit test suite
under the 3-clause BSD license-->
    <defs>
        <pattern id="pattern" viewBox="0 0 100 100" patternTransform="rotate(45)" height="0.1" width="0.1">
            <rect y="50" width="50" height="50" fill="blue"/>
            <rect x="50" width="50" height="50" fill="blue"/>
        </pattern>
    </defs>
    <pattern patternUnits="userSpaceOnUse" id="pat1" x="10" y="10" width="20" height="20">
        <rect x="5" y="5" width="10" height="10" fill="yellow"/>
        <rect x="10" y="10" width="10" height="10" fill="green"/>
    </pattern>
    <rect x="25" y="10" width="430" height="60" stroke="black" fill="url(#pat1)"/>
    <pattern id="pat3" patternTransform="rotate(45)" xlink:href="#pat1">
    </pattern>
    <rect x="35" y="110" width="410" height="40" fill="none" stroke="url(#pat1)" stroke-width="20"/>
    <rect x="20" y="200" fill="url(#pat3)" width="200" height="100"/>
    <rect x="250" y="200" fill="url(#pattern)" width="100" height="100"/>
</svg>